…
``` r
# Applying recipe to test
test_baked <- rec %>% bake(df_test)

# Seeing if our recipes are the same
juice(rec)
```

    ## # A tibble: 1,522 x 4
    ##    ScaledSpeechRate ScaledPitchIQR ScaledPauseDur Diagnosis
    ##               <dbl>          <dbl>          <dbl> <fct>    
    ##  1         -0.00296       -0.00697         0.504  0        
    ##  2         -1.03          -0.311           0.582  0        
    ##  3          0.683         -0.434          -0.0517 0        
    ##  4         -0.0397        -0.343          -0.225  0        
    ##  5         -0.370         -0.322           0.325  0        
    ##  6         -0.272         -0.200          -0.187  0        
    ##  7         -0.530          0.381          -0.668  0        
    ##  8         -2.06          -0.429           0.0228 0        
    ##  9          0.671         -0.168          -0.0382 0        
    ## 10         -0.970         -0.412          -0.838  0        
    ## # … with 1,512 more rows

``` r
rec %>% bake(df_train) # the recipes are the same, however columns are changes
```

    ## # A tibble: 1,522 x 4
    ##    Diagnosis ScaledPitchIQR ScaledSpeechRate ScaledPauseDur
    ##    <fct>              <dbl>            <dbl>          <dbl>
    ##  1 0               -0.00697         -0.00296         0.504 
    ##  2 0               -0.311           -1.03            0.582 
    ##  3 0               -0.434            0.683          -0.0517
    ##  4 0               -0.343           -0.0397         -0.225 
    ##  5 0               -0.322           -0.370           0.325 
    ##  6 0               -0.200           -0.272          -0.187 
    ##  7 0                0.381           -0.530          -0.668 
    ##  8 0               -0.429           -2.06            0.0228
    ##  9 0               -0.168            0.671          -0.0382
    ## 10 0               -0.412           -0.970          -0.838 
    ## # … with 1,512 more rows
…
``` r
# Applying recipe to test
test_baked <- rec %>% bake(df_test)

# Seeing if our recipes are the same
juice(rec)
```

    ## # A tibble: 1,522 x 4
    ##    ScaledSpeechRate ScaledPitchIQR ScaledPauseDur Diagnosis
    ##               <dbl>          <dbl>          <dbl> <fct>    
    ##  1         -0.00296       -0.00697         0.504  0        
    ##  2         -1.03          -0.311           0.582  0        
    ##  3          0.683         -0.434          -0.0517 0        
    ##  4         -0.0397        -0.343          -0.225  0        
    ##  5         -0.370         -0.322           0.325  0        
    ##  6         -0.272         -0.200          -0.187  0        
    ##  7         -0.530          0.381          -0.668  0        
    ##  8         -2.06          -0.429           0.0228 0        
    ##  9          0.671         -0.168          -0.0382 0        
    ## 10         -0.970         -0.412          -0.838  0        
    ## # … with 1,512 more rows

``` r
rec %>% bake(df_train) # the recipes are the same, however columns are changes
```

    ## # A tibble: 1,522 x 4
    ##    Diagnosis ScaledPitchIQR ScaledSpeechRate ScaledPauseDur
    ##    <fct>              <dbl>            <dbl>          <dbl>
    ##  1 0               -0.00697         -0.00296         0.504 
    ##  2 0               -0.311           -1.03            0.582 
    ##  3 0               -0.434            0.683          -0.0517
    ##  4 0               -0.343           -0.0397         -0.225 
    ##  5 0               -0.322           -0.370           0.325 
    ##  6 0               -0.200           -0.272          -0.187 
    ##  7 0                0.381           -0.530          -0.668 
    ##  8 0               -0.429           -2.06            0.0228
    ##  9 0               -0.168            0.671          -0.0382
    ## 10 0               -0.412           -0.970          -0.838 
    ## # … with 1,512 more rows
…
``` r
# Applying recipe to test
test_baked <- rec %>% bake(df_test)

# Seeing if our recipes are the same
juice(rec)
```

    ## # A tibble: 1,522 x 3
    ##    ScaledSpeechRate ScaledPitchIQR Diagnosis
    ##               <dbl>          <dbl> <fct>    
    ##  1         -0.00296       -0.00697 0        
    ##  2         -1.03          -0.311   0        
    ##  3          0.683         -0.434   0        
    ##  4         -0.0397        -0.343   0        
    ##  5         -0.370         -0.322   0        
    ##  6         -0.272         -0.200   0        
    ##  7         -0.530          0.381   0        
    ##  8         -2.06          -0.429   0        
    ##  9          0.671         -0.168   0        
    ## 10         -0.970         -0.412   0        
    ## # … with 1,512 more rows

``` r
rec %>% bake(df_train) # the recipes are the same, however columns are changes
```

    ## # A tibble: 1,522 x 3
    ##    Diagnosis ScaledPitchIQR ScaledSpeechRate
    ##    <fct>              <dbl>            <dbl>
    ##  1 0               -0.00697         -0.00296
    ##  2 0               -0.311           -1.03   
    ##  3 0               -0.434            0.683  
    ##  4 0               -0.343           -0.0397 
    ##  5 0               -0.322           -0.370  
    ##  6 0               -0.200           -0.272  
    ##  7 0                0.381           -0.530  
    ##  8 0               -0.429           -2.06   
    ##  9 0               -0.168            0.671  
    ## 10 0               -0.412           -0.970  
    ## # … with 1,512 more rows
…
